<svg width="17" height="17" viewBox="0 0 17 17" fill="none" xmlns="http://www.w3.org/2000/svg">
<path d="M13.5794 10.1672C13.2408 10.1672 12.9868 10.2519 12.7329 10.2519L10.2781 7.79712L12.3097 5.76559L14.9337 4.83447L16.8806 1.70253C16.9652 1.53324 16.9652 1.2793 16.8806 1.19465L15.8648 0.178886C15.6955 0.00959165 15.4416 0.00959164 15.2723 0.0942387L12.0557 1.95647L11.04 4.66518L9.00842 6.69671L6.72295 4.24194C6.72295 3.988 6.8076 3.73406 6.8076 3.39547C6.8076 1.19465 4.69143 -0.413644 2.57525 0.0942387L3.84495 1.36394C4.52213 2.04112 4.52213 3.05689 3.84495 3.73406C3.16778 4.41124 2.15201 4.41124 1.47484 3.73406L0.120485 2.549C-0.556691 5.00377 1.72878 7.37388 4.26819 6.61206L6.72295 9.06682L5.70719 10.0826C5.11466 9.91329 4.52213 10.0826 4.0989 10.5058L0.628368 13.9764C-0.0488087 14.6535 -0.133456 15.6693 0.459073 16.3465C1.13625 17.1083 2.23666 17.1083 2.91384 16.4311L6.46901 12.8759C6.89225 12.4527 7.06154 11.7755 6.89225 11.2676L7.90801 10.2519L10.3628 12.7066C10.2781 12.9606 10.2781 13.2992 10.2781 13.5531C10.2781 15.7539 12.3943 17.3622 14.5105 16.8544L13.2408 15.5846C12.5636 14.9075 12.5636 13.8917 13.2408 13.2145C13.918 12.5374 14.9337 12.5374 15.6109 13.2145L16.8806 14.4842C17.4731 12.2834 15.7802 10.1672 13.5794 10.1672Z" fill="#EEE6D1"/>
</svg>
