<svg width="26" height="25" viewBox="0 0 26 25" fill="none" xmlns="http://www.w3.org/2000/svg">
<path fill-rule="evenodd" clip-rule="evenodd" d="M6.92768 23.88C6.80466 23.88 6.68183 23.8332 6.58792 23.7395L1.14105 18.3C1.05071 18.2096 0.999813 18.0872 1 17.9593C1.00019 17.8316 1.05109 17.7091 1.14161 17.6189L2.62555 16.1423C3.07951 15.6878 3.69122 15.4572 4.31853 15.4897C5.11393 13.8001 6.59074 12.6443 8.45275 12.2534V1.48081C8.45275 1.21524 8.66817 1 8.93356 1H21.2909C21.5563 1 21.7718 1.21524 21.7718 1.48081V10.8692L22.237 10.388C22.9234 9.59167 24.1304 9.494 24.9357 10.1728C25.7463 10.8579 25.8487 12.0739 25.1643 12.8837L20.8569 18.0562C20.8462 18.0691 20.8349 18.0814 20.8229 18.093C20.0108 18.8839 18.9389 19.3194 17.8049 19.3194H11.4743C10.8917 19.3194 10.3394 19.5426 9.91922 19.9475L9.38977 20.4587C9.45663 21.124 9.22505 21.7823 8.74405 22.2629L7.26763 23.7393C7.17372 23.833 7.0507 23.88 6.92768 23.88ZM20.8101 11.8635V1.96162H9.41456V12.1234C9.57401 12.1129 9.73441 12.1071 9.89537 12.1071C10.7103 12.1071 11.5035 12.2619 12.2525 12.5672C12.2861 12.5808 12.3195 12.5879 12.3503 12.5879H17.9251C18.5146 12.5879 19.0604 12.8621 19.4186 13.3022L20.8101 11.8635ZM11.8913 13.4584C10.9479 13.074 9.97519 12.9913 9.00249 13.132C7.30726 13.3784 5.99517 14.3019 5.26062 15.7507C5.45426 15.8542 5.63325 15.9853 5.79101 16.1431L8.74424 19.0963C8.8558 19.2077 8.9546 19.3296 9.03949 19.4601L9.25153 19.2554C9.85217 18.6764 10.6414 18.3578 11.4743 18.3578H17.8049C18.6788 18.3578 19.5052 18.0254 20.1346 17.421L24.4275 12.2658C24.7719 11.8582 24.7207 11.2503 24.3155 10.9079C23.9108 10.5668 23.3025 10.6179 22.9599 11.0225C22.9531 11.0305 22.9458 11.0384 22.9385 11.0461C22.8378 11.1504 19.9315 14.1562 19.8312 14.2589C19.8421 14.3421 19.8483 14.4264 19.8483 14.5113C19.8483 15.5717 18.9857 16.4346 17.9251 16.4346H13.7419C13.4765 16.4346 13.261 16.2193 13.261 15.9538C13.261 15.6882 13.4765 15.473 13.7419 15.473H17.9251C18.4553 15.473 18.8867 15.0415 18.8867 14.5113C18.8867 13.9749 18.4465 13.5497 17.9251 13.5497H12.3503C12.1957 13.5497 12.0412 13.5189 11.8913 13.4584ZM5.11093 16.8232C4.61753 16.3294 3.81011 16.317 3.30489 16.823L2.16183 17.9604L6.9273 22.7195L8.06434 21.5826C8.56844 21.0791 8.55962 20.2707 8.06453 19.7766L5.11093 16.8232ZM12.2515 4.89482V5.85644C12.2515 7.45026 13.5426 8.74131 15.1364 8.74131C16.7272 8.74131 18.0214 7.44725 18.0214 5.85644V4.89482C18.287 4.89482 18.5022 4.67959 18.5022 4.41401C18.5022 4.14844 18.287 3.9332 18.0214 3.9332H17.0598C16.7942 3.9332 16.579 4.14844 16.579 4.41401C16.579 4.67959 16.7942 4.89482 17.0598 4.89482V5.85644C17.0598 6.91686 16.197 7.77969 15.1364 7.77969C14.0743 7.77969 13.2131 6.91892 13.2131 5.85644V4.89482C13.4787 4.89482 13.6939 4.67959 13.6939 4.41401C13.6939 4.14844 13.4787 3.9332 13.2131 3.9332H12.2515C11.9859 3.9332 11.7707 4.14844 11.7707 4.41401C11.7707 4.67959 11.9859 4.89482 12.2515 4.89482ZM12.0763 16.2114C12.2639 16.0234 12.2639 15.7189 12.0763 15.5309C11.8883 15.3435 11.584 15.3435 11.396 15.5309C11.2084 15.7189 11.2084 16.0234 11.396 16.2114C11.584 16.3988 11.8883 16.3988 12.0763 16.2114Z" fill="#EEE6D1"/>
<path d="M6.58792 23.7395L6.41126 23.9164L6.41132 23.9165L6.58792 23.7395ZM1.14105 18.3L0.964274 18.4767L0.964393 18.4769L1.14105 18.3ZM1 17.9593L0.750001 17.9589V17.9589L1 17.9593ZM1.14161 17.6189L0.965275 17.4417L0.965206 17.4418L1.14161 17.6189ZM2.62555 16.1423L2.80189 16.3195L2.80244 16.319L2.62555 16.1423ZM4.31853 15.4897L4.3056 15.7393L4.47323 15.748L4.54472 15.5962L4.31853 15.4897ZM8.45275 12.2534L8.50411 12.4981L8.70275 12.4564V12.2534H8.45275ZM21.7718 10.8692H21.5218V11.4874L21.9515 11.043L21.7718 10.8692ZM22.237 10.388L22.4167 10.5618L22.4217 10.5566L22.4263 10.5512L22.237 10.388ZM24.9357 10.1728L25.0971 9.98184L25.0968 9.98161L24.9357 10.1728ZM25.1643 12.8837L24.9733 12.7223L24.9722 12.7237L25.1643 12.8837ZM20.8569 18.0562L20.6648 17.8962L20.6642 17.897L20.8569 18.0562ZM20.8229 18.093L20.649 17.9134L20.6485 17.9139L20.8229 18.093ZM9.91922 19.9475L9.74573 19.7675L9.74556 19.7677L9.91922 19.9475ZM9.38977 20.4587L9.21611 20.2789L9.1289 20.3631L9.14102 20.4837L9.38977 20.4587ZM8.74405 22.2629L8.56734 22.0861L8.56728 22.0861L8.74405 22.2629ZM7.26763 23.7393L7.44423 23.9163L7.4444 23.9161L7.26763 23.7393ZM20.8101 1.96162H21.0601V1.71162H20.8101V1.96162ZM20.8101 11.8635L20.9898 12.0373L21.0601 11.9646V11.8635H20.8101ZM9.41456 1.96162V1.71162H9.16456V1.96162H9.41456ZM9.41456 12.1234H9.16456V12.3905L9.43101 12.3729L9.41456 12.1234ZM12.2525 12.5672L12.1581 12.7987L12.1592 12.7992L12.2525 12.5672ZM19.4186 13.3022L19.2247 13.46L19.4025 13.6784L19.5983 13.476L19.4186 13.3022ZM9.00249 13.132L8.9667 12.8846L8.96653 12.8846L9.00249 13.132ZM11.8913 13.4584L11.7969 13.6899L11.7977 13.6903L11.8913 13.4584ZM5.26062 15.7507L5.03764 15.6377L4.927 15.8559L5.14278 15.9712L5.26062 15.7507ZM5.79101 16.1431L5.96779 15.9663H5.96779L5.79101 16.1431ZM8.74424 19.0963L8.56746 19.2731L8.56761 19.2732L8.74424 19.0963ZM9.03949 19.4601L8.82991 19.5964L8.99512 19.8504L9.21313 19.64L9.03949 19.4601ZM9.25153 19.2554L9.07802 19.0754L9.07789 19.0755L9.25153 19.2554ZM20.1346 17.421L20.3077 17.6013L20.3178 17.5917L20.3267 17.581L20.1346 17.421ZM24.4275 12.2658L24.2365 12.1044L24.2354 12.1058L24.4275 12.2658ZM24.3155 10.9079L24.4769 10.7169L24.4766 10.7167L24.3155 10.9079ZM22.9599 11.0225L22.7691 10.8609L22.7682 10.862L22.9599 11.0225ZM22.9385 11.0461L23.1183 11.2198L23.1196 11.2184L22.9385 11.0461ZM19.8312 14.2589L19.6523 14.0843L19.5676 14.1711L19.5834 14.2914L19.8312 14.2589ZM3.30489 16.823L3.48123 17.0002L3.48179 16.9996L3.30489 16.823ZM5.11093 16.8232L4.93409 16.9999L4.93416 17L5.11093 16.8232ZM2.16183 17.9604L1.98549 17.7832L1.80772 17.9601L1.98518 18.1373L2.16183 17.9604ZM6.9273 22.7195L6.75064 22.8964L6.92741 23.0729L7.10406 22.8963L6.9273 22.7195ZM8.06434 21.5826L7.88767 21.4058L7.88758 21.4058L8.06434 21.5826ZM8.06453 19.7766L7.88776 19.9534L7.88792 19.9535L8.06453 19.7766ZM12.2515 4.89482H12.5015V4.64482H12.2515V4.89482ZM18.0214 4.89482V4.64482H17.7714V4.89482H18.0214ZM17.0598 4.89482H17.3098V4.64482H17.0598V4.89482ZM13.2131 4.89482V4.64482H12.9631V4.89482H13.2131ZM12.0763 15.5309L12.2532 15.3543L12.2528 15.3539L12.0763 15.5309ZM12.0763 16.2114L12.2528 16.3884L12.2532 16.388L12.0763 16.2114ZM11.396 15.5309L11.2195 15.3539L11.219 15.3543L11.396 15.5309ZM11.396 16.2114L11.219 16.388L11.2195 16.3884L11.396 16.2114ZM6.41132 23.9165C6.55401 24.0589 6.7412 24.13 6.92768 24.13V23.63C6.86812 23.63 6.80964 23.6076 6.76452 23.5626L6.41132 23.9165ZM0.964393 18.4769L6.41126 23.9164L6.76458 23.5626L1.31771 18.1231L0.964393 18.4769ZM0.750001 17.9589C0.749715 18.1536 0.827196 18.3397 0.964274 18.4767L1.31783 18.1232C1.27423 18.0796 1.24991 18.0208 1.25 17.9596L0.750001 17.9589ZM0.965206 17.4418C0.827592 17.5788 0.750286 17.7649 0.750001 17.9589L1.25 17.9596C1.25009 17.8982 1.27458 17.8394 1.31802 17.7961L0.965206 17.4418ZM2.44921 15.9651L0.965275 17.4417L1.31795 17.7962L2.80189 16.3195L2.44921 15.9651ZM4.33146 15.24C3.63381 15.2039 2.95298 15.4607 2.44867 15.9657L2.80244 16.319C3.20603 15.9149 3.74863 15.7105 4.3056 15.7393L4.33146 15.24ZM8.40139 12.0087C6.46439 12.4153 4.92188 13.6211 4.09234 15.3832L4.54472 15.5962C5.30599 13.9791 6.71709 12.8732 8.50411 12.4981L8.40139 12.0087ZM8.20275 1.48081V12.2534H8.70275V1.48081H8.20275ZM8.93356 0.75C8.53017 0.75 8.20275 1.0771 8.20275 1.48081H8.70275C8.70275 1.35337 8.80618 1.25 8.93356 1.25V0.75ZM21.2909 0.75H8.93356V1.25H21.2909V0.75ZM22.0218 1.48081C22.0218 1.0771 21.6943 0.75 21.2909 0.75V1.25C21.4183 1.25 21.5218 1.35337 21.5218 1.48081H22.0218ZM22.0218 10.8692V1.48081H21.5218V10.8692H22.0218ZM22.0572 10.2142L21.592 10.6954L21.9515 11.043L22.4167 10.5618L22.0572 10.2142ZM25.0968 9.98161C24.1866 9.21443 22.8234 9.32483 22.0476 10.2248L22.4263 10.5512C23.0235 9.85851 24.0741 9.77357 24.7746 10.3639L25.0968 9.98161ZM25.3552 13.0451C26.1289 12.1296 26.013 10.756 25.0971 9.98184L24.7743 10.3637C25.4796 10.9598 25.5685 12.0181 24.9733 12.7224L25.3552 13.0451ZM21.049 18.2162L25.3564 13.0437L24.9722 12.7237L20.6648 17.8962L21.049 18.2162ZM20.9968 18.2726C21.0156 18.2544 21.0331 18.2354 21.0497 18.2154L20.6642 17.897C20.6593 17.9029 20.6543 17.9083 20.649 17.9134L20.9968 18.2726ZM17.8049 19.5694C19.004 19.5694 20.1385 19.1085 20.9973 18.2721L20.6485 17.9139C19.8831 18.6593 18.8738 19.0694 17.8049 19.0694V19.5694ZM11.4743 19.5694H17.8049V19.0694H11.4743V19.5694ZM10.0927 20.1275C10.4664 19.7674 10.9566 19.5694 11.4743 19.5694V19.0694C10.8269 19.0694 10.2124 19.3177 9.74573 19.7675L10.0927 20.1275ZM9.56342 20.6386L10.0929 20.1273L9.74556 19.7677L9.21611 20.2789L9.56342 20.6386ZM8.92076 22.4397C9.455 21.9059 9.71286 21.1735 9.63851 20.4337L9.14102 20.4837C9.2004 21.0745 8.9951 21.6586 8.56734 22.0861L8.92076 22.4397ZM7.4444 23.9161L8.92083 22.4397L8.56728 22.0861L7.09085 23.5625L7.4444 23.9161ZM6.92768 24.13C7.11431 24.13 7.30164 24.0586 7.44423 23.9163L7.09103 23.5624C7.0458 23.6075 6.98709 23.63 6.92768 23.63V24.13ZM20.5601 1.96162V11.8635H21.0601V1.96162H20.5601ZM9.41456 2.21162H20.8101V1.71162H9.41456V2.21162ZM9.66456 12.1234V1.96162H9.16456V12.1234H9.66456ZM9.89537 11.8571C9.72839 11.8571 9.56249 11.8631 9.3981 11.874L9.43101 12.3729C9.58554 12.3627 9.74042 12.3571 9.89537 12.3571V11.8571ZM12.3469 12.3357C11.5676 12.018 10.7424 11.8571 9.89537 11.8571V12.3571C10.6782 12.3571 11.4393 12.5057 12.1581 12.7987L12.3469 12.3357ZM12.3503 12.3379C12.3541 12.3379 12.3554 12.3383 12.3542 12.3381C12.3531 12.3378 12.3502 12.3371 12.3458 12.3353L12.1592 12.7992C12.2167 12.8223 12.2819 12.8379 12.3503 12.8379V12.3379ZM17.9251 12.3379H12.3503V12.8379H17.9251V12.3379ZM19.6125 13.1444C19.2086 12.6481 18.5926 12.3379 17.9251 12.3379V12.8379C18.4367 12.8379 18.9123 13.0761 19.2247 13.46L19.6125 13.1444ZM20.6304 11.6897L19.2389 13.1284L19.5983 13.476L20.9898 12.0373L20.6304 11.6897ZM9.03827 13.3794C9.97263 13.2443 10.8997 13.3243 11.7969 13.6899L11.9856 13.2269C10.996 12.8236 9.97775 12.7384 8.9667 12.8846L9.03827 13.3794ZM5.4836 15.8638C6.17942 14.4914 7.41932 13.6148 9.03845 13.3794L8.96653 12.8846C7.19519 13.1421 5.81092 14.1125 5.03764 15.6377L5.4836 15.8638ZM5.96779 15.9663C5.79207 15.7906 5.59306 15.6449 5.37845 15.5302L5.14278 15.9712C5.31545 16.0635 5.47443 16.1801 5.61424 16.3199L5.96779 15.9663ZM8.92102 18.9195L5.96779 15.9663L5.61424 16.3199L8.56746 19.2731L8.92102 18.9195ZM9.24907 19.3238C9.15461 19.1786 9.04477 19.0431 8.92087 18.9194L8.56761 19.2732C8.66684 19.3723 8.75458 19.4806 8.82991 19.5964L9.24907 19.3238ZM9.07789 19.0755L8.86584 19.2803L9.21313 19.64L9.42518 19.4352L9.07789 19.0755ZM11.4743 18.1078C10.5766 18.1078 9.7252 18.4515 9.07802 19.0754L9.42504 19.4354C9.97914 18.9012 10.7062 18.6078 11.4743 18.6078V18.1078ZM17.8049 18.1078H11.4743V18.6078H17.8049V18.1078ZM19.9614 17.2407C19.3786 17.8003 18.6143 18.1078 17.8049 18.1078V18.6078C18.7433 18.6078 19.6317 18.2505 20.3077 17.6013L19.9614 17.2407ZM24.2354 12.1058L19.9425 17.261L20.3267 17.581L24.6196 12.4258L24.2354 12.1058ZM24.1542 11.0988C24.4535 11.3518 24.4921 11.802 24.2365 12.1044L24.6184 12.4272C25.0517 11.9145 24.9878 11.1487 24.4769 10.7169L24.1542 11.0988ZM23.1507 11.184C23.4042 10.8846 23.8552 10.8469 24.1544 11.0991L24.4766 10.7167C23.9664 10.2868 23.2007 10.3512 22.7691 10.8609L23.1507 11.184ZM23.1196 11.2184C23.1279 11.2097 23.1396 11.1972 23.1516 11.1829L22.7682 10.862C22.7666 10.8638 22.7637 10.8671 22.7573 10.8738L23.1196 11.2184ZM20.0101 14.4335C20.111 14.3302 23.018 11.3237 23.1183 11.2198L22.7586 10.8724C22.6576 10.977 19.752 13.9822 19.6523 14.0843L20.0101 14.4335ZM20.0983 14.5113C20.0983 14.4143 20.0912 14.3191 20.0791 14.2265L19.5834 14.2914C19.593 14.3652 19.5983 14.4386 19.5983 14.5113H20.0983ZM17.9251 16.6846C19.1238 16.6846 20.0983 15.7098 20.0983 14.5113H19.5983C19.5983 15.4337 18.8476 16.1846 17.9251 16.1846V16.6846ZM13.7419 16.6846H17.9251V16.1846H13.7419V16.6846ZM13.011 15.9538C13.011 16.3575 13.3385 16.6846 13.7419 16.6846V16.1846C13.6145 16.1846 13.511 16.0812 13.511 15.9538H13.011ZM13.7419 15.223C13.3385 15.223 13.011 15.5501 13.011 15.9538H13.511C13.511 15.8263 13.6145 15.723 13.7419 15.723V15.223ZM17.9251 15.223H13.7419V15.723H17.9251V15.223ZM18.6367 14.5113C18.6367 14.9035 18.3172 15.223 17.9251 15.223V15.723C18.5934 15.723 19.1367 15.1796 19.1367 14.5113H18.6367ZM17.9251 13.7997C18.3109 13.7997 18.6367 14.1155 18.6367 14.5113H19.1367C19.1367 13.8343 18.582 13.2997 17.9251 13.2997V13.7997ZM12.3503 13.7997H17.9251V13.2997H12.3503V13.7997ZM11.7977 13.6903C11.9759 13.7622 12.1621 13.7997 12.3503 13.7997V13.2997C12.2294 13.2997 12.1065 13.2757 11.9848 13.2266L11.7977 13.6903ZM3.48179 16.9996C3.88772 16.5931 4.53669 16.6022 4.93409 16.9999L5.28777 16.6465C4.69838 16.0566 3.7325 16.0409 3.12798 16.6463L3.48179 16.9996ZM2.33817 18.1376L3.48122 17.0002L3.12855 16.6458L1.98549 17.7832L2.33817 18.1376ZM7.10396 22.5426L2.33849 17.7835L1.98518 18.1373L6.75064 22.8964L7.10396 22.5426ZM7.88758 21.4058L6.75054 22.5427L7.10406 22.8963L8.24111 21.7594L7.88758 21.4058ZM7.88792 19.9535C8.28622 20.3511 8.29294 21.0009 7.88767 21.4058L8.24102 21.7595C8.84395 21.1573 8.83301 20.1904 8.24114 19.5996L7.88792 19.9535ZM4.93416 17L7.88776 19.9534L8.2413 19.5998L5.2877 16.6464L4.93416 17ZM12.5015 5.85644V4.89482H12.0015V5.85644H12.5015ZM15.1364 8.49131C13.6806 8.49131 12.5015 7.31218 12.5015 5.85644H12.0015C12.0015 7.58833 13.4045 8.99131 15.1364 8.99131V8.49131ZM17.7714 5.85644C17.7714 7.30916 16.5891 8.49131 15.1364 8.49131V8.99131C16.8652 8.99131 18.2714 7.58534 18.2714 5.85644H17.7714ZM17.7714 4.89482V5.85644H18.2714V4.89482H17.7714ZM18.2522 4.41401C18.2522 4.54151 18.1489 4.64482 18.0214 4.64482V5.14482C18.4251 5.14482 18.7522 4.81766 18.7522 4.41401H18.2522ZM18.0214 4.1832C18.1489 4.1832 18.2522 4.28651 18.2522 4.41401H18.7522C18.7522 4.01037 18.4251 3.6832 18.0214 3.6832V4.1832ZM17.0598 4.1832H18.0214V3.6832H17.0598V4.1832ZM16.829 4.41401C16.829 4.28651 16.9323 4.1832 17.0598 4.1832V3.6832C16.6562 3.6832 16.329 4.01037 16.329 4.41401H16.829ZM17.0598 4.64482C16.9323 4.64482 16.829 4.54151 16.829 4.41401H16.329C16.329 4.81766 16.6562 5.14482 17.0598 5.14482V4.64482ZM17.3098 5.85644V4.89482H16.8098V5.85644H17.3098ZM15.1364 8.02969C16.335 8.02969 17.3098 7.05494 17.3098 5.85644H16.8098C16.8098 6.77877 16.0589 7.52969 15.1364 7.52969V8.02969ZM12.9631 5.85644C12.9631 7.05703 13.9362 8.02969 15.1364 8.02969V7.52969C14.2123 7.52969 13.4631 6.78082 13.4631 5.85644H12.9631ZM12.9631 4.89482V5.85644H13.4631V4.89482H12.9631ZM13.4439 4.41401C13.4439 4.54151 13.3406 4.64482 13.2131 4.64482V5.14482C13.6168 5.14482 13.9439 4.81766 13.9439 4.41401H13.4439ZM13.2131 4.1832C13.3406 4.1832 13.4439 4.28651 13.4439 4.41401H13.9439C13.9439 4.01037 13.6168 3.6832 13.2131 3.6832V4.1832ZM12.2515 4.1832H13.2131V3.6832H12.2515V4.1832ZM12.0207 4.41401C12.0207 4.28651 12.124 4.1832 12.2515 4.1832V3.6832C11.8479 3.6832 11.5207 4.01037 11.5207 4.41401H12.0207ZM12.2515 4.64482C12.124 4.64482 12.0207 4.54151 12.0207 4.41401H11.5207C11.5207 4.81766 11.8479 5.14482 12.2515 5.14482V4.64482ZM11.8993 15.7075C11.9895 15.7979 11.9895 15.9444 11.8993 16.0348L12.2532 16.388C12.5382 16.1024 12.5382 15.6399 12.2532 15.3543L11.8993 15.7075ZM11.5725 15.708C11.6629 15.6178 11.8093 15.6178 11.8997 15.708L12.2528 15.3539C11.9672 15.0692 11.505 15.0692 11.2195 15.3539L11.5725 15.708ZM11.5729 16.0348C11.4827 15.9444 11.4827 15.7979 11.5729 15.7075L11.219 15.3543C10.934 15.6399 10.934 16.1024 11.219 16.388L11.5729 16.0348ZM11.8997 16.0343C11.8093 16.1245 11.6629 16.1245 11.5725 16.0343L11.2195 16.3884C11.505 16.6731 11.9672 16.6731 12.2528 16.3884L11.8997 16.0343Z" fill="#EEE6D1"/>
</svg>
